EESchema Schematic File Version 4
EELAYER 30 0
EELAYER END
$Descr A4 11693 8268
encoding utf-8
Sheet 1 2
Title "Motor Control Board"
Date "2020-08-30"
Rev "1"
Comp "Sukriansyah"
Comment1 "Technical Test Electronic Engineer eFishery"
Comment2 ""
Comment3 ""
Comment4 ""
$EndDescr
$Sheet
S 1425 1475 900  1575
U 5F49DFE4
F0 "Core" 50
F1 "atmega32_minsys.sch" 50
F2 "VCC" I L 1425 1575 50 
F3 "AREF" I L 1425 1675 50 
F4 "RESET" I L 1425 1775 50 
F5 "PB0" I L 1425 1975 50 
F6 "PB1" I L 1425 2075 50 
F7 "PB2" I L 1425 2175 50 
F8 "PB3" I L 1425 2275 50 
F9 "PB4" I L 1425 2375 50 
F10 "PB5" I L 1425 2475 50 
F11 "PB6_XTAL1" I L 1425 2575 50 
F12 "PB7_XTAL2" I L 1425 2675 50 
F13 "PC0" I R 2325 1575 50 
F14 "PC1" I R 2325 1675 50 
F15 "PC2" I R 2325 1775 50 
F16 "PC3" I R 2325 1875 50 
F17 "PC4" I R 2325 1975 50 
F18 "PC5" I R 2325 2075 50 
F19 "PD0" I R 2325 2250 50 
F20 "PD1" I R 2325 2350 50 
F21 "PD2" I R 2325 2450 50 
F22 "PD3" I R 2325 2550 50 
F23 "PD4" I R 2325 2650 50 
F24 "PD5" I R 2325 2750 50 
F25 "PD6" I R 2325 2850 50 
F26 "PD7" I R 2325 2950 50 
$EndSheet
$Comp
L power:+5V #PWR0101
U 1 1 5F4C6887
P 1300 1525
F 0 "#PWR0101" H 1300 1375 50  0001 C CNN
F 1 "+5V" H 1300 1675 50  0000 C CNN
F 2 "" H 1300 1525 50  0001 C CNN
F 3 "" H 1300 1525 50  0001 C CNN
	1    1300 1525
	1    0    0    -1  
$EndComp
Wire Wire Line
	1425 1575 1300 1575
Wire Wire Line
	1300 1575 1300 1525
Wire Wire Line
	1300 1575 1300 1675
Wire Wire Line
	1300 1675 1425 1675
Connection ~ 1300 1575
$Comp
L Switch:SW_Push SW101
U 1 1 5F4C7539
P 3175 1575
F 0 "SW101" H 3175 1750 50  0000 C CNN
F 1 "A" H 3350 1675 50  0000 C CNN
F 2 "Button_Switch_SMD:SW_Push_1P1T_NO_6x6mm_H9.5mm" H 3175 1775 50  0001 C CNN
F 3 "~" H 3175 1775 50  0001 C CNN
	1    3175 1575
	-1   0    0    -1  
$EndComp
$Comp
L Switch:SW_Push SW102
U 1 1 5F4C8BF0
P 3175 1850
F 0 "SW102" H 3175 2025 50  0000 C CNN
F 1 "B" H 3350 1950 50  0000 C CNN
F 2 "Button_Switch_SMD:SW_Push_1P1T_NO_6x6mm_H9.5mm" H 3175 2050 50  0001 C CNN
F 3 "~" H 3175 2050 50  0001 C CNN
	1    3175 1850
	-1   0    0    -1  
$EndComp
$Comp
L Switch:SW_Push SW103
U 1 1 5F4C90C1
P 3175 2125
F 0 "SW103" H 3175 2300 50  0000 C CNN
F 1 "C" H 3350 2225 50  0000 C CNN
F 2 "Button_Switch_SMD:SW_Push_1P1T_NO_6x6mm_H9.5mm" H 3175 2325 50  0001 C CNN
F 3 "~" H 3175 2325 50  0001 C CNN
	1    3175 2125
	-1   0    0    -1  
$EndComp
$Comp
L Switch:SW_Push SW104
U 1 1 5F4C955E
P 3175 2400
F 0 "SW104" H 3175 2575 50  0000 C CNN
F 1 "D" H 3350 2500 50  0000 C CNN
F 2 "Button_Switch_SMD:SW_Push_1P1T_NO_6x6mm_H9.5mm" H 3175 2600 50  0001 C CNN
F 3 "~" H 3175 2600 50  0001 C CNN
	1    3175 2400
	-1   0    0    -1  
$EndComp
$Comp
L Device:R R101
U 1 1 5F4C9670
P 2875 1375
F 0 "R101" H 2945 1421 50  0000 L CNN
F 1 "10K" V 2875 1375 50  0000 C CNN
F 2 "Resistor_SMD:R_0805_2012Metric" V 2805 1375 50  0001 C CNN
F 3 "~" H 2875 1375 50  0001 C CNN
	1    2875 1375
	-1   0    0    -1  
$EndComp
Wire Wire Line
	2875 1525 2875 1575
Wire Wire Line
	2875 1575 2975 1575
Wire Wire Line
	2875 1575 2875 1850
Wire Wire Line
	2875 1850 2975 1850
Connection ~ 2875 1575
Wire Wire Line
	2875 1850 2875 2125
Wire Wire Line
	2875 2400 2975 2400
Connection ~ 2875 1850
Wire Wire Line
	2975 2125 2875 2125
Connection ~ 2875 2125
Wire Wire Line
	2875 2125 2875 2400
$Comp
L power:+5V #PWR0109
U 1 1 5F4CCD5B
P 2875 1175
F 0 "#PWR0109" H 2875 1025 50  0001 C CNN
F 1 "+5V" H 2875 1325 50  0000 C CNN
F 2 "" H 2875 1175 50  0001 C CNN
F 3 "" H 2875 1175 50  0001 C CNN
	1    2875 1175
	-1   0    0    -1  
$EndComp
Wire Wire Line
	2875 1175 2875 1225
Wire Wire Line
	2875 1575 2325 1575
$Comp
L Device:R R102
U 1 1 5F4D2CD8
P 3575 1575
F 0 "R102" V 3500 1525 50  0000 L CNN
F 1 "10K" V 3575 1575 50  0000 C CNN
F 2 "Resistor_SMD:R_0805_2012Metric" V 3505 1575 50  0001 C CNN
F 3 "~" H 3575 1575 50  0001 C CNN
	1    3575 1575
	0    -1   1    0   
$EndComp
$Comp
L Device:R R103
U 1 1 5F4D336D
P 3575 1850
F 0 "R103" V 3500 1800 50  0000 L CNN
F 1 "4K7" V 3575 1850 50  0000 C CNN
F 2 "Resistor_SMD:R_0805_2012Metric" V 3505 1850 50  0001 C CNN
F 3 "~" H 3575 1850 50  0001 C CNN
	1    3575 1850
	0    -1   1    0   
$EndComp
$Comp
L Device:R R104
U 1 1 5F4D36C9
P 3575 2125
F 0 "R104" V 3500 2075 50  0000 L CNN
F 1 "3K3" V 3575 2125 50  0000 C CNN
F 2 "Resistor_SMD:R_0805_2012Metric" V 3505 2125 50  0001 C CNN
F 3 "~" H 3575 2125 50  0001 C CNN
	1    3575 2125
	0    -1   1    0   
$EndComp
$Comp
L power:GND #PWR0113
U 1 1 5F4D3A34
P 3775 2450
F 0 "#PWR0113" H 3775 2200 50  0001 C CNN
F 1 "GND" H 3775 2300 50  0000 C CNN
F 2 "" H 3775 2450 50  0001 C CNN
F 3 "" H 3775 2450 50  0001 C CNN
	1    3775 2450
	1    0    0    -1  
$EndComp
Wire Wire Line
	3775 2450 3775 2400
Wire Wire Line
	3775 1575 3725 1575
Wire Wire Line
	3425 1575 3375 1575
Wire Wire Line
	3375 1850 3425 1850
Wire Wire Line
	3725 1850 3775 1850
Connection ~ 3775 1850
Wire Wire Line
	3775 1850 3775 1575
Wire Wire Line
	3375 2125 3425 2125
Wire Wire Line
	3725 2125 3775 2125
Connection ~ 3775 2125
Wire Wire Line
	3775 2125 3775 1850
Wire Wire Line
	3375 2400 3425 2400
Wire Wire Line
	3725 2400 3775 2400
Connection ~ 3775 2400
Wire Wire Line
	3775 2400 3775 2125
$Comp
L Device:R R105
U 1 1 5F4D3903
P 3575 2400
F 0 "R105" V 3500 2350 50  0000 L CNN
F 1 "1K" V 3575 2400 50  0000 C CNN
F 2 "Resistor_SMD:R_0805_2012Metric" V 3505 2400 50  0001 C CNN
F 3 "~" H 3575 2400 50  0001 C CNN
	1    3575 2400
	0    -1   1    0   
$EndComp
$Comp
L Connector_Generic:Conn_02x05_Odd_Even J102
U 1 1 5F4D7F22
P 1825 3950
F 0 "J102" H 1200 4400 50  0000 L CNN
F 1 "SPI_FLASH_CONN" H 1525 4300 50  0000 C CNN
F 2 "Connector_IDC:IDC-Header_2x05_P2.54mm_Vertical" H 1825 3950 50  0001 C CNN
F 3 "~" H 1825 3950 50  0001 C CNN
	1    1825 3950
	1    0    0    -1  
$EndComp
$Comp
L power:+5V #PWR0107
U 1 1 5F4DABD1
P 2525 3700
F 0 "#PWR0107" H 2525 3550 50  0001 C CNN
F 1 "+5V" H 2525 3850 50  0000 C CNN
F 2 "" H 2525 3700 50  0001 C CNN
F 3 "" H 2525 3700 50  0001 C CNN
	1    2525 3700
	1    0    0    -1  
$EndComp
Wire Wire Line
	2475 3750 2525 3750
Wire Wire Line
	2525 3750 2525 3700
Text Label 1200 3750 0    50   ~ 0
MOSI_MCU
Wire Wire Line
	1200 3750 1625 3750
Text Label 1200 3950 0    50   ~ 0
SS_MCU
Wire Wire Line
	1200 3950 1625 3950
Text Label 1200 4050 0    50   ~ 0
SCK_MCU
Wire Wire Line
	1200 4050 1625 4050
Text Label 1200 4150 0    50   ~ 0
MISO_MCU
Wire Wire Line
	1200 4150 1625 4150
NoConn ~ 1625 3850
$Comp
L power:GND #PWR0106
U 1 1 5F4DD605
P 2175 4200
F 0 "#PWR0106" H 2175 3950 50  0001 C CNN
F 1 "GND" H 2175 4050 50  0000 C CNN
F 2 "" H 2175 4200 50  0001 C CNN
F 3 "" H 2175 4200 50  0001 C CNN
	1    2175 4200
	1    0    0    -1  
$EndComp
Wire Wire Line
	2175 4200 2175 4150
Wire Wire Line
	2175 3850 2125 3850
Wire Wire Line
	2125 3950 2175 3950
Connection ~ 2175 3950
Wire Wire Line
	2175 3950 2175 3850
Wire Wire Line
	2125 4050 2175 4050
Connection ~ 2175 4050
Wire Wire Line
	2175 4050 2175 3950
Wire Wire Line
	2125 4150 2175 4150
Connection ~ 2175 4150
Wire Wire Line
	2175 4150 2175 4050
Text Label 1000 2275 0    50   ~ 0
MOSI_MCU
Wire Wire Line
	1000 2275 1425 2275
Text Label 1000 2375 0    50   ~ 0
MISO_MCU
Wire Wire Line
	1000 2375 1425 2375
Text Label 1000 2475 0    50   ~ 0
SCK_MCU
Wire Wire Line
	1000 2475 1425 2475
Text Label 1000 2175 0    50   ~ 0
SS_MCU
Wire Wire Line
	1000 2175 1425 2175
$Comp
L RF_Module:ESP-WROOM-02 U103
U 1 1 5F4F2037
P 5850 2475
F 0 "U103" H 5950 3125 50  0000 C CNN
F 1 "ESP-WROOM-02" H 6225 3025 50  0000 C CNN
F 2 "RF_Module:ESP-WROOM-02" H 6450 1925 50  0001 C CNN
F 3 "https://www.espressif.com/sites/default/files/documentation/0c-esp-wroom-02_datasheet_en.pdf" H 5900 3975 50  0001 C CNN
	1    5850 2475
	1    0    0    -1  
$EndComp
$Comp
L power:+3.3V #PWR0122
U 1 1 5F4F500D
P 5850 1275
F 0 "#PWR0122" H 5850 1125 50  0001 C CNN
F 1 "+3.3V" H 5850 1425 50  0000 C CNN
F 2 "" H 5850 1275 50  0001 C CNN
F 3 "" H 5850 1275 50  0001 C CNN
	1    5850 1275
	1    0    0    -1  
$EndComp
$Comp
L Device:C C?
U 1 1 5F4F6F13
P 6050 1325
AR Path="/5F49DFE4/5F4F6F13" Ref="C?"  Part="1" 
AR Path="/5F4F6F13" Ref="C106"  Part="1" 
F 0 "C106" V 5900 1325 50  0000 C CNN
F 1 "10uF" V 6000 1150 50  0000 C CNN
F 2 "Capacitor_SMD:C_0805_2012Metric" H 6088 1175 50  0001 C CNN
F 3 "~" H 6050 1325 50  0001 C CNN
	1    6050 1325
	0    -1   1    0   
$EndComp
$Comp
L Device:C C?
U 1 1 5F4F785C
P 6050 1625
AR Path="/5F49DFE4/5F4F785C" Ref="C?"  Part="1" 
AR Path="/5F4F785C" Ref="C107"  Part="1" 
F 0 "C107" V 5900 1625 50  0000 C CNN
F 1 "0.1uF" V 6000 1450 50  0000 C CNN
F 2 "Capacitor_SMD:C_0805_2012Metric" H 6088 1475 50  0001 C CNN
F 3 "~" H 6050 1625 50  0001 C CNN
	1    6050 1625
	0    -1   1    0   
$EndComp
$Comp
L power:GND #PWR0126
U 1 1 5F4F925A
P 6375 1675
F 0 "#PWR0126" H 6375 1425 50  0001 C CNN
F 1 "GND" H 6375 1525 50  0000 C CNN
F 2 "" H 6375 1675 50  0001 C CNN
F 3 "" H 6375 1675 50  0001 C CNN
	1    6375 1675
	-1   0    0    -1  
$EndComp
Wire Wire Line
	5850 1875 5850 1625
Wire Wire Line
	5850 1325 5900 1325
Wire Wire Line
	6375 1325 6375 1625
Wire Wire Line
	6200 1325 6375 1325
Wire Wire Line
	6200 1625 6375 1625
Connection ~ 6375 1625
Wire Wire Line
	6375 1625 6375 1675
Wire Wire Line
	5900 1625 5850 1625
Connection ~ 5850 1625
Wire Wire Line
	5850 1625 5850 1325
Wire Wire Line
	5850 1275 5850 1325
Connection ~ 5850 1325
$Comp
L Device:R R109
U 1 1 5F50236A
P 5050 1750
F 0 "R109" H 5075 1900 50  0000 L CNN
F 1 "10K" V 5050 1750 50  0000 C CNN
F 2 "Resistor_SMD:R_0805_2012Metric" V 4980 1750 50  0001 C CNN
F 3 "~" H 5050 1750 50  0001 C CNN
	1    5050 1750
	1    0    0    -1  
$EndComp
$Comp
L Device:C C?
U 1 1 5F502B12
P 4850 1950
AR Path="/5F49DFE4/5F502B12" Ref="C?"  Part="1" 
AR Path="/5F502B12" Ref="C103"  Part="1" 
F 0 "C103" V 4700 1950 50  0000 C CNN
F 1 "0.1uF" V 4800 1775 50  0000 C CNN
F 2 "Capacitor_SMD:C_0805_2012Metric" H 4888 1800 50  0001 C CNN
F 3 "~" H 4850 1950 50  0001 C CNN
	1    4850 1950
	0    1    1    0   
$EndComp
Wire Wire Line
	5050 1900 5050 1950
Wire Wire Line
	5050 1950 5000 1950
$Comp
L power:+3.3V #PWR0117
U 1 1 5F5068B7
P 5050 1550
F 0 "#PWR0117" H 5050 1400 50  0001 C CNN
F 1 "+3.3V" H 5050 1700 50  0000 C CNN
F 2 "" H 5050 1550 50  0001 C CNN
F 3 "" H 5050 1550 50  0001 C CNN
	1    5050 1550
	1    0    0    -1  
$EndComp
Wire Wire Line
	5050 1550 5050 1600
$Comp
L power:GND #PWR0114
U 1 1 5F507E24
P 4650 2000
F 0 "#PWR0114" H 4650 1750 50  0001 C CNN
F 1 "GND" H 4650 1850 50  0000 C CNN
F 2 "" H 4650 2000 50  0001 C CNN
F 3 "" H 4650 2000 50  0001 C CNN
	1    4650 2000
	-1   0    0    -1  
$EndComp
Wire Wire Line
	4700 1950 4650 1950
Wire Wire Line
	4650 1950 4650 2000
Text Label 4925 2175 0    50   ~ 0
RST_ESP
Wire Wire Line
	5050 1950 5050 2075
Wire Wire Line
	5050 2075 5350 2075
Connection ~ 5050 1950
$Comp
L power:GND #PWR0123
U 1 1 5F510FC8
P 5850 3125
F 0 "#PWR0123" H 5850 2875 50  0001 C CNN
F 1 "GND" H 5850 2975 50  0000 C CNN
F 2 "" H 5850 3125 50  0001 C CNN
F 3 "" H 5850 3125 50  0001 C CNN
	1    5850 3125
	-1   0    0    -1  
$EndComp
Wire Wire Line
	5850 3125 5850 3075
Text Label 4975 2575 0    50   ~ 0
RXD_ESP
Wire Wire Line
	4975 2575 5350 2575
Text Label 4975 2675 0    50   ~ 0
TXD_ESP
Wire Wire Line
	4975 2675 5350 2675
Text Label 5825 4125 0    50   ~ 0
RXD_ESP
Wire Wire Line
	6700 4125 7075 4125
Text Label 2750 2750 2    50   ~ 0
RXD_MCU
Wire Wire Line
	2750 2750 2325 2750
Text Label 2750 2850 2    50   ~ 0
TXD_MCU
Wire Wire Line
	2750 2850 2325 2850
Text Label 7075 4125 2    50   ~ 0
TXD_MCU
Text Label 1000 1775 0    50   ~ 0
RST_MCU
Wire Wire Line
	1000 1775 1425 1775
$Comp
L Device:R R110
U 1 1 5F537538
P 5300 1750
F 0 "R110" H 5370 1796 50  0000 L CNN
F 1 "10K" V 5300 1750 50  0000 C CNN
F 2 "Resistor_SMD:R_0805_2012Metric" V 5230 1750 50  0001 C CNN
F 3 "~" H 5300 1750 50  0001 C CNN
	1    5300 1750
	1    0    0    -1  
$EndComp
$Comp
L power:+3.3V #PWR0119
U 1 1 5F53753E
P 5300 1550
F 0 "#PWR0119" H 5300 1400 50  0001 C CNN
F 1 "+3.3V" H 5300 1700 50  0000 C CNN
F 2 "" H 5300 1550 50  0001 C CNN
F 3 "" H 5300 1550 50  0001 C CNN
	1    5300 1550
	1    0    0    -1  
$EndComp
Wire Wire Line
	5300 1550 5300 1600
Wire Wire Line
	5300 1900 5300 2175
Connection ~ 5300 2175
Wire Wire Line
	5300 2175 5350 2175
Wire Notes Line
	625  625  4175 625 
Wire Notes Line
	4175 625  4175 4625
Wire Notes Line
	4175 4625 625  4625
Wire Notes Line
	625  4625 625  625 
Text Notes 775  925  0    118  ~ 24
CONTROLLER
Text Notes 4400 975  0    118  ~ 24
WIFI MODULE
Wire Notes Line
	625  4725 4175 4725
Wire Notes Line
	4175 4725 4175 7650
Wire Notes Line
	4175 7650 625  7650
Wire Notes Line
	625  7650 625  4725
Wire Notes Line
	4275 4725 6800 4725
Wire Notes Line
	6800 4725 6800 7650
Wire Notes Line
	6800 7650 4275 7650
Wire Notes Line
	4275 7650 4275 4725
$Comp
L Regulator_Linear:AMS1117-3.3 U102
U 1 1 5F57963D
P 5550 6150
F 0 "U102" H 5550 6392 50  0000 C CNN
F 1 "AMS1117-3.3" H 5550 6301 50  0000 C CNN
F 2 "Package_TO_SOT_SMD:SOT-223-3_TabPin2" H 5550 6350 50  0001 C CNN
F 3 "http://www.advanced-monolithic.com/pdf/ds1117.pdf" H 5650 5900 50  0001 C CNN
	1    5550 6150
	1    0    0    -1  
$EndComp
$Comp
L Device:C C?
U 1 1 5F57B551
P 5900 6350
AR Path="/5F49DFE4/5F57B551" Ref="C?"  Part="1" 
AR Path="/5F57B551" Ref="C105"  Part="1" 
F 0 "C105" H 5850 6450 50  0000 C CNN
F 1 "10uF" H 5800 6250 50  0000 C CNN
F 2 "Capacitor_SMD:C_0805_2012Metric" H 5938 6200 50  0001 C CNN
F 3 "~" H 5900 6350 50  0001 C CNN
	1    5900 6350
	-1   0    0    -1  
$EndComp
$Comp
L Device:C C?
U 1 1 5F57C7D8
P 5200 6350
AR Path="/5F49DFE4/5F57C7D8" Ref="C?"  Part="1" 
AR Path="/5F57C7D8" Ref="C104"  Part="1" 
F 0 "C104" H 5150 6450 50  0000 C CNN
F 1 "10uF" H 5100 6250 50  0000 C CNN
F 2 "Capacitor_SMD:C_0805_2012Metric" H 5238 6200 50  0001 C CNN
F 3 "~" H 5200 6350 50  0001 C CNN
	1    5200 6350
	1    0    0    -1  
$EndComp
$Comp
L power:GND #PWR0121
U 1 1 5F57E61F
P 5550 6600
F 0 "#PWR0121" H 5550 6350 50  0001 C CNN
F 1 "GND" H 5550 6450 50  0000 C CNN
F 2 "" H 5550 6600 50  0001 C CNN
F 3 "" H 5550 6600 50  0001 C CNN
	1    5550 6600
	-1   0    0    -1  
$EndComp
Wire Wire Line
	5200 6500 5200 6550
Wire Wire Line
	5200 6550 5550 6550
Wire Wire Line
	5900 6550 5900 6500
Wire Wire Line
	5550 6450 5550 6550
Connection ~ 5550 6550
Wire Wire Line
	5550 6550 5900 6550
Wire Wire Line
	5550 6550 5550 6600
Wire Wire Line
	5250 6150 5200 6150
Wire Wire Line
	5200 6150 5200 6200
Wire Wire Line
	5850 6150 5900 6150
Wire Wire Line
	5900 6150 5900 6200
$Comp
L power:+3.3V #PWR0124
U 1 1 5F58D6B9
P 5950 6100
F 0 "#PWR0124" H 5950 5950 50  0001 C CNN
F 1 "+3.3V" H 5950 6250 50  0000 C CNN
F 2 "" H 5950 6100 50  0001 C CNN
F 3 "" H 5950 6100 50  0001 C CNN
	1    5950 6100
	1    0    0    -1  
$EndComp
Wire Wire Line
	5900 6150 5950 6150
Wire Wire Line
	5950 6150 5950 6100
Connection ~ 5900 6150
$Comp
L Regulator_Switching:LM2596S-5 U101
U 1 1 5F590CD0
P 2675 6175
F 0 "U101" H 2675 6542 50  0000 C CNN
F 1 "LM2596S-5" H 2675 6451 50  0000 C CNN
F 2 "Package_TO_SOT_SMD:TO-263-5_TabPin3" H 2725 5925 50  0001 L CIN
F 3 "http://www.ti.com/lit/ds/symlink/lm2596.pdf" H 2675 6175 50  0001 C CNN
	1    2675 6175
	1    0    0    -1  
$EndComp
$Comp
L Device:CP C101
U 1 1 5F596FCD
P 1700 6275
F 0 "C101" H 1818 6321 50  0000 L CNN
F 1 "470uF" H 1818 6230 50  0000 L CNN
F 2 "Capacitor_SMD:CP_Elec_5x3" H 1738 6125 50  0001 C CNN
F 3 "~" H 1700 6275 50  0001 C CNN
	1    1700 6275
	1    0    0    -1  
$EndComp
Wire Wire Line
	2175 6075 1700 6075
Wire Wire Line
	1700 6075 1700 6125
$Comp
L power:GND #PWR0108
U 1 1 5F5A3965
P 2675 6525
F 0 "#PWR0108" H 2675 6275 50  0001 C CNN
F 1 "GND" H 2675 6375 50  0000 C CNN
F 2 "" H 2675 6525 50  0001 C CNN
F 3 "" H 2675 6525 50  0001 C CNN
	1    2675 6525
	-1   0    0    -1  
$EndComp
Wire Wire Line
	2675 6525 2675 6475
$Comp
L power:GND #PWR0104
U 1 1 5F5A6571
P 1700 6475
F 0 "#PWR0104" H 1700 6225 50  0001 C CNN
F 1 "GND" H 1700 6325 50  0000 C CNN
F 2 "" H 1700 6475 50  0001 C CNN
F 3 "" H 1700 6475 50  0001 C CNN
	1    1700 6475
	-1   0    0    -1  
$EndComp
Wire Wire Line
	1700 6475 1700 6425
$Comp
L power:GND #PWR0105
U 1 1 5F5AB546
P 2125 6325
F 0 "#PWR0105" H 2125 6075 50  0001 C CNN
F 1 "GND" H 2125 6175 50  0000 C CNN
F 2 "" H 2125 6325 50  0001 C CNN
F 3 "" H 2125 6325 50  0001 C CNN
	1    2125 6325
	-1   0    0    -1  
$EndComp
Wire Wire Line
	2175 6275 2125 6275
Wire Wire Line
	2125 6275 2125 6325
$Comp
L Device:L L101
U 1 1 5F5AE3CB
P 3425 6275
F 0 "L101" V 3500 6275 50  0000 C CNN
F 1 "68uH" V 3375 6275 50  0000 C CNN
F 2 "Inductor_SMD:L_12x12mm_H6mm" H 3425 6275 50  0001 C CNN
F 3 "~" H 3425 6275 50  0001 C CNN
	1    3425 6275
	0    -1   -1   0   
$EndComp
Wire Wire Line
	3175 6275 3225 6275
$Comp
L Device:D_Schottky D101
U 1 1 5F5B7FE3
P 3225 6475
F 0 "D101" V 3225 6555 50  0000 L CNN
F 1 "D_Schottky" V 3270 6555 50  0001 L CNN
F 2 "Diode_SMD:D_SOD-123" H 3225 6475 50  0001 C CNN
F 3 "~" H 3225 6475 50  0001 C CNN
	1    3225 6475
	0    1    1    0   
$EndComp
Wire Wire Line
	3175 6075 3625 6075
Wire Wire Line
	3625 6075 3625 6275
Wire Wire Line
	3625 6275 3575 6275
Wire Wire Line
	3225 6325 3225 6275
Connection ~ 3225 6275
Wire Wire Line
	3225 6275 3275 6275
$Comp
L power:GND #PWR0110
U 1 1 5F5BE01A
P 3225 6675
F 0 "#PWR0110" H 3225 6425 50  0001 C CNN
F 1 "GND" H 3225 6525 50  0000 C CNN
F 2 "" H 3225 6675 50  0001 C CNN
F 3 "" H 3225 6675 50  0001 C CNN
	1    3225 6675
	-1   0    0    -1  
$EndComp
Wire Wire Line
	3225 6675 3225 6625
$Comp
L Device:CP C102
U 1 1 5F5C0EBA
P 3625 6475
F 0 "C102" H 3743 6521 50  0000 L CNN
F 1 "220uF" H 3743 6430 50  0000 L CNN
F 2 "Capacitor_SMD:CP_Elec_5x3" H 3663 6325 50  0001 C CNN
F 3 "~" H 3625 6475 50  0001 C CNN
	1    3625 6475
	1    0    0    -1  
$EndComp
Wire Wire Line
	3625 6325 3625 6275
Connection ~ 3625 6275
$Comp
L power:GND #PWR0112
U 1 1 5F5C42BF
P 3625 6675
F 0 "#PWR0112" H 3625 6425 50  0001 C CNN
F 1 "GND" H 3625 6525 50  0000 C CNN
F 2 "" H 3625 6675 50  0001 C CNN
F 3 "" H 3625 6675 50  0001 C CNN
	1    3625 6675
	-1   0    0    -1  
$EndComp
Wire Wire Line
	3625 6675 3625 6625
$Comp
L power:+5V #PWR0111
U 1 1 5F5C72AF
P 3625 6025
F 0 "#PWR0111" H 3625 5875 50  0001 C CNN
F 1 "+5V" H 3625 6175 50  0000 C CNN
F 2 "" H 3625 6025 50  0001 C CNN
F 3 "" H 3625 6025 50  0001 C CNN
	1    3625 6025
	1    0    0    -1  
$EndComp
Wire Wire Line
	3625 6025 3625 6075
Connection ~ 3625 6075
$Comp
L Jumper:SolderJumper_2_Open JP101
U 1 1 5F5CB420
P 2325 3750
F 0 "JP101" H 2325 3825 50  0000 C CNN
F 1 "SolderJumper_2_Open" H 2325 3864 50  0001 C CNN
F 2 "Jumper:SolderJumper-2_P1.3mm_Open_Pad1.0x1.5mm" H 2325 3750 50  0001 C CNN
F 3 "~" H 2325 3750 50  0001 C CNN
	1    2325 3750
	1    0    0    -1  
$EndComp
Wire Wire Line
	2175 3750 2125 3750
$Comp
L power:+5V #PWR0118
U 1 1 5F5D4D0F
P 5150 6100
F 0 "#PWR0118" H 5150 5950 50  0001 C CNN
F 1 "+5V" H 5150 6250 50  0000 C CNN
F 2 "" H 5150 6100 50  0001 C CNN
F 3 "" H 5150 6100 50  0001 C CNN
	1    5150 6100
	1    0    0    -1  
$EndComp
Wire Wire Line
	5200 6150 5150 6150
Wire Wire Line
	5150 6150 5150 6100
Connection ~ 5200 6150
$Comp
L Connector:Barrel_Jack J101
U 1 1 5F5F47D1
P 1125 6175
F 0 "J101" H 1182 6500 50  0000 C CNN
F 1 "Barrel_Jack" H 1182 6409 50  0000 C CNN
F 2 "Connector_BarrelJack:BarrelJack_Horizontal" H 1175 6135 50  0001 C CNN
F 3 "~" H 1175 6135 50  0001 C CNN
	1    1125 6175
	1    0    0    -1  
$EndComp
$Comp
L power:+24V #PWR0103
U 1 1 5F5F601C
P 1700 6025
F 0 "#PWR0103" H 1700 5875 50  0001 C CNN
F 1 "+24V" H 1700 6175 50  0000 C CNN
F 2 "" H 1700 6025 50  0001 C CNN
F 3 "" H 1700 6025 50  0001 C CNN
	1    1700 6025
	1    0    0    -1  
$EndComp
Wire Wire Line
	1425 6075 1700 6075
Connection ~ 1700 6075
Wire Wire Line
	1700 6025 1700 6075
$Comp
L power:GND #PWR0102
U 1 1 5F5FD193
P 1475 6325
F 0 "#PWR0102" H 1475 6075 50  0001 C CNN
F 1 "GND" H 1475 6175 50  0000 C CNN
F 2 "" H 1475 6325 50  0001 C CNN
F 3 "" H 1475 6325 50  0001 C CNN
	1    1475 6325
	-1   0    0    -1  
$EndComp
Wire Wire Line
	1425 6275 1475 6275
Wire Wire Line
	1475 6275 1475 6325
Text Notes 775  5050 0    118  ~ 24
5V REGULATOR
Text Notes 4425 5050 0    118  ~ 24
3V3 REGULATOR
$Comp
L Transistor_FET:BSS138 Q102
U 1 1 5F60DE8A
P 6450 4025
F 0 "Q102" V 6699 4025 50  0000 C CNN
F 1 "BSS138" V 6790 4025 50  0000 C CNN
F 2 "Package_TO_SOT_SMD:SOT-23" H 6650 3950 50  0001 L CIN
F 3 "https://www.fairchildsemi.com/datasheets/BS/BSS138.pdf" H 6450 4025 50  0001 L CNN
	1    6450 4025
	0    1    1    0   
$EndComp
$Comp
L Device:R R112
U 1 1 5F610E32
P 6200 3925
F 0 "R112" V 6275 3875 50  0000 L CNN
F 1 "10K" V 6200 3925 50  0000 C CNN
F 2 "Resistor_SMD:R_0805_2012Metric" V 6130 3925 50  0001 C CNN
F 3 "~" H 6200 3925 50  0001 C CNN
	1    6200 3925
	-1   0    0    -1  
$EndComp
$Comp
L Device:R R113
U 1 1 5F6120E1
P 6700 3925
F 0 "R113" V 6775 3875 50  0000 L CNN
F 1 "10K" V 6700 3925 50  0000 C CNN
F 2 "Resistor_SMD:R_0805_2012Metric" V 6630 3925 50  0001 C CNN
F 3 "~" H 6700 3925 50  0001 C CNN
	1    6700 3925
	-1   0    0    -1  
$EndComp
Wire Wire Line
	6450 3825 6450 3725
Wire Wire Line
	6450 3725 6200 3725
Wire Wire Line
	6200 3725 6200 3775
Wire Wire Line
	6250 4125 6200 4125
Wire Wire Line
	6200 4125 6200 4075
Wire Wire Line
	6650 4125 6700 4125
Wire Wire Line
	6700 4125 6700 4075
$Comp
L power:+3.3V #PWR0125
U 1 1 5F6249C8
P 6200 3675
F 0 "#PWR0125" H 6200 3525 50  0001 C CNN
F 1 "+3.3V" H 6200 3825 50  0000 C CNN
F 2 "" H 6200 3675 50  0001 C CNN
F 3 "" H 6200 3675 50  0001 C CNN
	1    6200 3675
	1    0    0    -1  
$EndComp
$Comp
L power:+5V #PWR0127
U 1 1 5F625241
P 6700 3675
F 0 "#PWR0127" H 6700 3525 50  0001 C CNN
F 1 "+5V" H 6700 3825 50  0000 C CNN
F 2 "" H 6700 3675 50  0001 C CNN
F 3 "" H 6700 3675 50  0001 C CNN
	1    6700 3675
	-1   0    0    -1  
$EndComp
Wire Wire Line
	6700 3675 6700 3775
Wire Wire Line
	6200 3675 6200 3725
Connection ~ 6200 3725
$Comp
L Transistor_FET:BSS138 Q101
U 1 1 5F637C97
P 5075 4025
F 0 "Q101" V 5324 4025 50  0000 C CNN
F 1 "BSS138" V 5415 4025 50  0000 C CNN
F 2 "Package_TO_SOT_SMD:SOT-23" H 5275 3950 50  0001 L CIN
F 3 "https://www.fairchildsemi.com/datasheets/BS/BSS138.pdf" H 5075 4025 50  0001 L CNN
	1    5075 4025
	0    1    1    0   
$EndComp
$Comp
L Device:R R108
U 1 1 5F637C9D
P 4825 3925
F 0 "R108" V 4900 3875 50  0000 L CNN
F 1 "10K" V 4825 3925 50  0000 C CNN
F 2 "Resistor_SMD:R_0805_2012Metric" V 4755 3925 50  0001 C CNN
F 3 "~" H 4825 3925 50  0001 C CNN
	1    4825 3925
	-1   0    0    -1  
$EndComp
$Comp
L Device:R R111
U 1 1 5F637CA3
P 5325 3925
F 0 "R111" V 5400 3875 50  0000 L CNN
F 1 "10K" V 5325 3925 50  0000 C CNN
F 2 "Resistor_SMD:R_0805_2012Metric" V 5255 3925 50  0001 C CNN
F 3 "~" H 5325 3925 50  0001 C CNN
	1    5325 3925
	-1   0    0    -1  
$EndComp
Wire Wire Line
	5075 3825 5075 3725
Wire Wire Line
	5075 3725 4825 3725
Wire Wire Line
	4825 3725 4825 3775
Wire Wire Line
	4875 4125 4825 4125
Wire Wire Line
	4825 4125 4825 4075
Wire Wire Line
	5275 4125 5325 4125
Wire Wire Line
	5325 4125 5325 4075
$Comp
L power:+3.3V #PWR0116
U 1 1 5F637CB0
P 4825 3675
F 0 "#PWR0116" H 4825 3525 50  0001 C CNN
F 1 "+3.3V" H 4825 3825 50  0000 C CNN
F 2 "" H 4825 3675 50  0001 C CNN
F 3 "" H 4825 3675 50  0001 C CNN
	1    4825 3675
	1    0    0    -1  
$EndComp
$Comp
L power:+5V #PWR0120
U 1 1 5F637CB6
P 5325 3675
F 0 "#PWR0120" H 5325 3525 50  0001 C CNN
F 1 "+5V" H 5325 3825 50  0000 C CNN
F 2 "" H 5325 3675 50  0001 C CNN
F 3 "" H 5325 3675 50  0001 C CNN
	1    5325 3675
	-1   0    0    -1  
$EndComp
Wire Wire Line
	5325 3675 5325 3775
Wire Wire Line
	4825 3675 4825 3725
Connection ~ 4825 3725
Connection ~ 6700 4125
Wire Wire Line
	5325 4125 5700 4125
Text Label 5700 4125 2    50   ~ 0
RXD_MCU
Connection ~ 5325 4125
Wire Wire Line
	5825 4125 6200 4125
Connection ~ 6200 4125
Text Label 4450 4125 0    50   ~ 0
TXD_ESP
Wire Wire Line
	4450 4125 4825 4125
Connection ~ 4825 4125
$Comp
L Device:R R106
U 1 1 5F684FB8
P 4725 2475
F 0 "R106" V 4800 2425 50  0000 L CNN
F 1 "4K7" V 4725 2475 50  0000 C CNN
F 2 "Resistor_SMD:R_0805_2012Metric" V 4655 2475 50  0001 C CNN
F 3 "~" H 4725 2475 50  0001 C CNN
	1    4725 2475
	-1   0    0    -1  
$EndComp
$Comp
L Device:R R107
U 1 1 5F686794
P 4725 2875
F 0 "R107" V 4800 2825 50  0000 L CNN
F 1 "10K" V 4725 2875 50  0000 C CNN
F 2 "Resistor_SMD:R_0805_2012Metric" V 4655 2875 50  0001 C CNN
F 3 "~" H 4725 2875 50  0001 C CNN
	1    4725 2875
	-1   0    0    -1  
$EndComp
$Comp
L power:GND #PWR0115
U 1 1 5F686E0E
P 4725 3075
F 0 "#PWR0115" H 4725 2825 50  0001 C CNN
F 1 "GND" H 4725 2925 50  0000 C CNN
F 2 "" H 4725 3075 50  0001 C CNN
F 3 "" H 4725 3075 50  0001 C CNN
	1    4725 3075
	-1   0    0    -1  
$EndComp
Wire Wire Line
	4725 3075 4725 3025
Wire Wire Line
	4725 2625 4725 2675
Wire Wire Line
	4725 2675 4875 2675
Wire Wire Line
	4875 2675 4875 2175
Wire Wire Line
	4875 2175 5300 2175
Connection ~ 4725 2675
Wire Wire Line
	4725 2675 4725 2725
Text Label 2825 2450 2    50   ~ 0
RES_ESP_5V
Wire Wire Line
	2825 2450 2325 2450
Text Label 4550 2750 1    50   ~ 0
RES_ESP_5V
Wire Wire Line
	4725 2325 4725 2275
Wire Wire Line
	4725 2275 4550 2275
Wire Wire Line
	4550 2275 4550 2750
$Comp
L Connector_Generic:Conn_01x04 J103
U 1 1 5F6ADA13
P 8000 1875
F 0 "J103" H 8080 1867 50  0000 L CNN
F 1 "UART FLASH" H 8080 1776 50  0000 L CNN
F 2 "Connector_PinHeader_2.54mm:PinHeader_1x04_P2.54mm_Vertical" H 8000 1875 50  0001 C CNN
F 3 "~" H 8000 1875 50  0001 C CNN
	1    8000 1875
	1    0    0    -1  
$EndComp
$Comp
L Jumper:SolderJumper_2_Open JP102
U 1 1 5F6AE3EA
P 7600 1725
F 0 "JP102" H 7600 1800 50  0000 C CNN
F 1 "SolderJumper_2_Open" H 7600 1839 50  0001 C CNN
F 2 "Jumper:SolderJumper-2_P1.3mm_Open_Pad1.0x1.5mm" H 7600 1725 50  0001 C CNN
F 3 "~" H 7600 1725 50  0001 C CNN
	1    7600 1725
	1    0    0    -1  
$EndComp
$Comp
L power:+3.3V #PWR0131
U 1 1 5F6AED1C
P 7400 1675
F 0 "#PWR0131" H 7400 1525 50  0001 C CNN
F 1 "+3.3V" H 7400 1825 50  0000 C CNN
F 2 "" H 7400 1675 50  0001 C CNN
F 3 "" H 7400 1675 50  0001 C CNN
	1    7400 1675
	1    0    0    -1  
$EndComp
Wire Wire Line
	7450 1725 7400 1725
Wire Wire Line
	7400 1725 7400 1675
Wire Wire Line
	7750 1725 7800 1775
$Comp
L power:GND #PWR0133
U 1 1 5F6B9B18
P 7750 2125
F 0 "#PWR0133" H 7750 1875 50  0001 C CNN
F 1 "GND" H 7750 1975 50  0000 C CNN
F 2 "" H 7750 2125 50  0001 C CNN
F 3 "" H 7750 2125 50  0001 C CNN
	1    7750 2125
	-1   0    0    -1  
$EndComp
Wire Wire Line
	7800 2075 7750 2075
Wire Wire Line
	7750 2075 7750 2125
Text Label 7425 1875 0    50   ~ 0
RXD_ESP
Wire Wire Line
	7425 1875 7800 1875
Text Label 7425 1975 0    50   ~ 0
TXD_ESP
Wire Wire Line
	7425 1975 7800 1975
$Comp
L Switch:SW_Push SW?
U 1 1 5F6CBF65
P 6675 2075
AR Path="/5F49DFE4/5F6CBF65" Ref="SW?"  Part="1" 
AR Path="/5F6CBF65" Ref="SW105"  Part="1" 
F 0 "SW105" H 6675 2360 50  0000 C CNN
F 1 "BOOT" H 6675 2269 50  0000 C CNN
F 2 "Button_Switch_SMD:SW_Push_1P1T_NO_6x6mm_H9.5mm" H 6675 2275 50  0001 C CNN
F 3 "~" H 6675 2275 50  0001 C CNN
	1    6675 2075
	1    0    0    -1  
$EndComp
Wire Wire Line
	6475 2075 6350 2075
$Comp
L power:GND #PWR0128
U 1 1 5F6E261D
P 6925 2125
F 0 "#PWR0128" H 6925 1875 50  0001 C CNN
F 1 "GND" H 6925 1975 50  0000 C CNN
F 2 "" H 6925 2125 50  0001 C CNN
F 3 "" H 6925 2125 50  0001 C CNN
	1    6925 2125
	-1   0    0    -1  
$EndComp
Wire Wire Line
	6875 2075 6925 2075
Wire Wire Line
	6925 2075 6925 2125
$Comp
L power:GND #PWR0136
U 1 1 5F6EFE6F
P 9350 3900
F 0 "#PWR0136" H 9350 3650 50  0001 C CNN
F 1 "GND" H 9350 3750 50  0000 C CNN
F 2 "" H 9350 3900 50  0001 C CNN
F 3 "" H 9350 3900 50  0001 C CNN
	1    9350 3900
	-1   0    0    -1  
$EndComp
Wire Wire Line
	9300 3850 9350 3850
Wire Wire Line
	9350 3850 9350 3900
Text Label 6725 2575 2    50   ~ 0
MOSI_ESP
Wire Wire Line
	6725 2575 6350 2575
Text Label 6725 2475 2    50   ~ 0
MISO_ESP
Wire Wire Line
	6725 2475 6350 2475
Text Label 6725 2675 2    50   ~ 0
SCK_ESP
Wire Wire Line
	6725 2675 6350 2675
Text Label 6725 2775 2    50   ~ 0
SS_ESP
Wire Wire Line
	6725 2775 6350 2775
$Comp
L power:+3.3V #PWR0129
U 1 1 5F72CD56
P 7150 2925
F 0 "#PWR0129" H 7150 2775 50  0001 C CNN
F 1 "+3.3V" H 7150 3075 50  0000 C CNN
F 2 "" H 7150 2925 50  0001 C CNN
F 3 "" H 7150 2925 50  0001 C CNN
	1    7150 2925
	1    0    0    -1  
$EndComp
$Comp
L Connector:Micro_SD_Card J104
U 1 1 5F6EE2F6
P 8500 3250
F 0 "J104" H 8450 3967 50  0000 C CNN
F 1 "Micro_SD_Card" H 8450 3876 50  0000 C CNN
F 2 "Connector_Card:microSD_HC_Hirose_DM3AT-SF-PEJM5" H 9650 3550 50  0001 C CNN
F 3 "http://katalog.we-online.de/em/datasheet/693072010801.pdf" H 8500 3250 50  0001 C CNN
	1    8500 3250
	1    0    0    -1  
$EndComp
Wire Wire Line
	7600 3250 7150 3250
Wire Wire Line
	7150 3250 7150 2925
Text Label 7225 3050 0    50   ~ 0
SS_ESP
Wire Wire Line
	7225 3050 7600 3050
Text Label 7225 3150 0    50   ~ 0
MOSI_ESP
Wire Wire Line
	7225 3150 7600 3150
Text Label 7225 3350 0    50   ~ 0
SCK_ESP
Wire Wire Line
	7225 3350 7600 3350
Text Label 7225 3550 0    50   ~ 0
MISO_ESP
Wire Wire Line
	7600 3550 7225 3550
$Comp
L power:GND #PWR0130
U 1 1 5F7583B1
P 7150 3575
F 0 "#PWR0130" H 7150 3325 50  0001 C CNN
F 1 "GND" H 7150 3425 50  0000 C CNN
F 2 "" H 7150 3575 50  0001 C CNN
F 3 "" H 7150 3575 50  0001 C CNN
	1    7150 3575
	-1   0    0    -1  
$EndComp
Wire Wire Line
	7600 3450 7150 3450
Wire Wire Line
	7150 3450 7150 3575
Wire Notes Line
	4275 4625 9575 4625
Wire Notes Line
	9575 4625 9575 625 
Wire Notes Line
	9575 625  4275 625 
Wire Notes Line
	4275 625  4275 4625
$Comp
L power:GND #PWR0135
U 1 1 5F7915D8
P 7950 6000
F 0 "#PWR0135" H 7950 5750 50  0001 C CNN
F 1 "GND" H 7950 5850 50  0000 C CNN
F 2 "" H 7950 6000 50  0001 C CNN
F 3 "" H 7950 6000 50  0001 C CNN
	1    7950 6000
	-1   0    0    -1  
$EndComp
Wire Wire Line
	7950 6000 7950 5950
$Comp
L Device:R R114
U 1 1 5F798C27
P 7600 5950
F 0 "R114" V 7675 5900 50  0000 L CNN
F 1 "10K" V 7600 5950 50  0000 C CNN
F 2 "Resistor_SMD:R_0805_2012Metric" V 7530 5950 50  0001 C CNN
F 3 "~" H 7600 5950 50  0001 C CNN
	1    7600 5950
	-1   0    0    -1  
$EndComp
Wire Wire Line
	7650 5750 7600 5750
Wire Wire Line
	7600 5750 7600 5800
$Comp
L power:GND #PWR0132
U 1 1 5F7AC3AA
P 7600 6150
F 0 "#PWR0132" H 7600 5900 50  0001 C CNN
F 1 "GND" H 7600 6000 50  0000 C CNN
F 2 "" H 7600 6150 50  0001 C CNN
F 3 "" H 7600 6150 50  0001 C CNN
	1    7600 6150
	-1   0    0    -1  
$EndComp
Wire Wire Line
	7600 6150 7600 6100
$Comp
L Transistor_FET:IRF540N Q103
U 1 1 5F7B3B7B
P 7850 5750
F 0 "Q103" H 8054 5796 50  0000 L CNN
F 1 "IRF540N" H 8054 5705 50  0000 L CNN
F 2 "Package_TO_SOT_THT:TO-220-3_Horizontal_TabDown" H 8100 5675 50  0001 L CIN
F 3 "http://www.irf.com/product-info/datasheets/data/irf540n.pdf" H 7850 5750 50  0001 L CNN
	1    7850 5750
	1    0    0    -1  
$EndComp
Text Label 2750 2550 2    50   ~ 0
PWM_OUT
Wire Wire Line
	2750 2550 2325 2550
Text Label 7250 5750 0    50   ~ 0
PWM_OUT
Wire Wire Line
	7600 5750 7250 5750
Connection ~ 7600 5750
$Comp
L Connector:Screw_Terminal_01x02 J105
U 1 1 5F7D0F58
P 8700 5250
F 0 "J105" H 8780 5242 50  0000 L CNN
F 1 "MOTOR 24V 10A" H 8780 5151 50  0000 L CNN
F 2 "TerminalBlock:TerminalBlock_bornier-2_P5.08mm" H 8700 5250 50  0001 C CNN
F 3 "~" H 8700 5250 50  0001 C CNN
	1    8700 5250
	1    0    0    -1  
$EndComp
Wire Wire Line
	7950 5500 7950 5550
$Comp
L Diode:1N5401 D102
U 1 1 5F7DFA87
P 7950 5300
F 0 "D102" V 7904 5380 50  0000 L CNN
F 1 "1N5401" V 7995 5380 50  0000 L CNN
F 2 "Diode_THT:D_DO-201AD_P15.24mm_Horizontal" H 7950 5125 50  0001 C CNN
F 3 "http://www.vishay.com/docs/88516/1n5400.pdf" H 7950 5300 50  0001 C CNN
	1    7950 5300
	0    1    1    0   
$EndComp
Wire Wire Line
	8500 5350 8375 5350
Wire Wire Line
	8375 5350 8375 5500
Wire Wire Line
	7950 5500 8375 5500
Wire Wire Line
	8500 5250 8375 5250
Wire Wire Line
	8375 5250 8375 5100
Wire Wire Line
	8375 5100 7950 5100
Wire Wire Line
	7950 5100 7950 5150
Wire Wire Line
	7950 5450 7950 5500
Connection ~ 7950 5500
$Comp
L power:+24V #PWR0134
U 1 1 5F815E64
P 7950 5050
F 0 "#PWR0134" H 7950 4900 50  0001 C CNN
F 1 "+24V" H 7950 5200 50  0000 C CNN
F 2 "" H 7950 5050 50  0001 C CNN
F 3 "" H 7950 5050 50  0001 C CNN
	1    7950 5050
	1    0    0    -1  
$EndComp
Wire Wire Line
	7950 5050 7950 5100
Connection ~ 7950 5100
Wire Notes Line
	6900 4725 6900 6425
Wire Notes Line
	9575 6425 9575 4725
Wire Notes Line
	9575 4725 6900 4725
Wire Notes Line
	6900 6425 9575 6425
Text Notes 7025 5175 0    98   ~ 20
MOTOR\nDRIVER
$EndSCHEMATC
